Análise sobre séries e suas avaliações no IMDB
…
episodes = read_csv(here("data/series_from_imdb.csv"), 
                    progress = FALSE,
                    col_types = cols(.default = col_double(), 
                                     series_name = col_character(), 
                                     episode = col_character(), 
                                     url = col_character(),
                                     season = col_character())) %>% 
    filter(series_name %in% c("Vikings", "Stranger Things", "Game of Thrones"))

episodes

## # A tibble: 117 x 18
##    series_name  episode    series_ep season season_ep url      user_rating
##    <chr>        <chr>          <dbl> <chr>      <dbl> <chr>          <dbl>
##  1 Stranger Th… Chapter O…        1. 1             1. http://…        8.60
##  2 Stranger Th… Chapter T…        2. 1             2. http://…        8.50
##  3 Stranger Th… Chapter T…        3. 1             3. http://…        9.00
##  4 Stranger Th… Chapter F…        4. 1             4. http://…        9.00
##  5 Stranger Th… Chapter F…        5. 1             5. http://…        8.80
##  6 Stranger Th… Chapter S…        6. 1             6. http://…        8.90
##  7 Stranger Th… Chapter S…        7. 1             7. http://…        9.10
##  8 Stranger Th… Chapter E…        8. 1             8. http://…        9.30
##  9 Game of Thr… Winter Is…        1. 1             1. http://…        9.00
## 10 Game of Thr… The Kings…        2. 1             2. http://…        8.80
## # ... with 107 more rows, and 11 more variables: user_votes <dbl>,
## #   r1 <dbl>, r2 <dbl>, r3 <dbl>, r4 <dbl>, r5 <dbl>, r6 <dbl>, r7 <dbl>,
## #   r8 <dbl>, r9 <dbl>, r10 <dbl>
…
